<svg width="700" height="700" version="1.1" xmlns="http://www.w3.org/2000/svg">

  <rect x="10" y="90" width="170" height="30" rx="10" ry="10" stroke="black" fill="transparent" stroke-width="1"/>
<rect x="40" y="120" rx="20" ry="20" width="30" height="30" stroke="black" fill="gray" stroke-width="5"/>
  <rect x="130" y="120" rx="20" ry="20" width="30" height="30" stroke="black" fill="gray" stroke-width="5"/>
   <line x1="30" x2="50" y1="90" y2="
  70" stroke="black" fill="transparent" stroke-width="1"/>
   <line x1="180" x2="50" y1="70" y2="70" stroke="black" fill="transparent" stroke-width="1" />
    <line x1="180" x2="180" y1="100" y2="70" stroke="black" fill="transparent" stroke-width="1"/>
  <rect x="176" y="110" width="12" height="5" rx="1" ry="1" stroke="black" fill="black" stroke-width="1"/>
  <rect x="187" y="100" rx="20" ry="20" width="10" height="10" stroke="grey" fill="gray" stroke-width="1"/>
   <rect x="195" y="90" rx="20" ry="20" width="6" height="6" stroke="grey" fill="gray" stroke-width="1"/>
    <rect x="199" y="98" rx="20" ry="20" width="8" height="8" stroke="grey" fill="gray" stroke-width="1"/>
     <rect x="200" y="108" rx="20" ry="20" width="2" height="2" stroke="grey" fill="gray" stroke-width="1"/>
     <rect x="70" y="90" width="50" height="30" rx="5" ry="5" stroke="black" fill="transparent" stroke-width=""/>
      <rect x="110" y="95" width="5" height="1" rx="1" ry="1" stroke="black" fill="transparent" stroke-width=""/>
   

</svg> 